"0","data_for_prediction <- expand.grid(id = ""1"", sex = c(""F"", ""M""), number = c(""1"",""2"", ""3""), parite = c(""1"", ""2""), days = c(1:100))"
"0","data_for_prediction$weight <- predict(ml_model_5, newdata = data_for_prediction)"
"0","gg <- ggplot(data = data_for_prediction[data_for_prediction$parite == ""1"", ], "
"0","             mapping = aes(x = days, y = weight, color = sex, linetype = number)) +"
"0","  geom_line() +"
"0","  ggtitle(""Modèle - Poids en fonction du nombre de jours, du sexe et de la portée"")"
"0","gg"
