"0","data_plot <- data %>% "
"0","  gather(model, pred, linear_model)"
"0","gg <- ggplot(data = data_plot[data_plot$id %in% c(""25"", ""4"",""169""),], "
"0","             mapping = aes(x = days, y = weight)) +"
"0","  geom_point() +"
"0","  geom_line(aes(y = pred, color = model)) +"
"0","  facet_grid(. ~ id) "
"0","gg"
